Mini-Project #01: Gourmet Cheeseburgers Across the Globe: Exploring the Most Popular Programming on Netflix – STA 9750 Submission Material
…
10. Which TV show/season hit the top 10 in the most countries in its debut week? In how many countries did it chart?

Show the code

COUNTRY_TOP_10 |>
        select(country_name, week, weekly_rank, category, show_title, season_title) |>
        filter(category == "TV") |>
        group_by(show_title,season_title, country_name) |>
        summarize(first_week = min(week, na.rm = TRUE), 
                  first_rank = weekly_rank[week == first_week]) |>
        group_by(show_title, season_title) |>
        summarize(max_occurance = n()) |>
        arrange(desc(max_occurance))

# A tibble: 3,937 × 3
# Groups:   show_title [2,867]
   show_title         season_title                   max_occurance
   <chr>              <chr>                                  <int>
 1 All of Us Are Dead All of Us Are Dead: Season 1              94
 2 Emily in Paris     Emily in Paris: Season 2                  94
 3 Inventing Anna     Inventing Anna: Limited Series            94
 4 Sex Education      Sex Education: Season 3                   94
 5 Squid Game         Squid Game: Season 1                      94
 6 The Witcher        The Witcher: Season 2                     94
 7 You                You: Season 3                             94
 8 3 Body Problem     3 Body Problem: Season 1                  93
 9 Adolescence        Adolescence: Limited Series               93
10 Bridgerton         Bridgerton: Season 2                      93
# ℹ 3,927 more rows
…
